Hotel Cancellation EDA
…
h1_train %>%
  select(product_type, days_prior, daily_gross_bookings) %>%
  filter(product_type == 'CORPORATE') %>%
  filter(daily_gross_bookings > 20)

## # A tibble: 42 x 3
##    product_type days_prior daily_gross_bookings
##    <chr>             <dbl>                <dbl>
##  1 CORPORATE             0                   27
##  2 CORPORATE             0                   24
##  3 CORPORATE             0                   25
##  4 CORPORATE             0                   23
##  5 CORPORATE             0                   21
##  6 CORPORATE             0                   29
##  7 CORPORATE             4                   23
##  8 CORPORATE             0                   28
##  9 CORPORATE             2                   23
## 10 CORPORATE             0                   24
## # ... with 32 more rows
…
